Uninsured in America: How Income, Employment, and Demographics Shape Coverage
…
From the summary, it’s clear that people with very low or even negative household income are consistently uninsured. Everyone earning between –$12,800 and about –$2,000 had a proportion_uninsured of 1, meaning none of them had health insurance. This makes sense, since these households are among the most vulnerable and least likely to be covered due to debt or deep financial hardship. So far, this only shows the uninsured side. Next, I look at who does have insurance at higher income levels to see if there’s a tipping point where access improves.

# Proportion with insurance by income group

data |> 
  group_by(HHINCOME) |>
  summarize(
    total = n(),
    uninsured = sum(has_insurance == 0),
    proportion_uninsured = uninsured / total) |>
  arrange(proportion_uninsured) |>  
  filter(total >= 10) |>            
  slice_head(n = 30)

# A tibble: 30 × 4
   HHINCOME total uninsured proportion_uninsured
      <dbl> <int>     <int>                <dbl>
 1    -5800    11         0                    0
 2    -3200    16         0                    0
 3     1070    28         0                    0
 4     1270    16         0                    0
 5     1780    24         0                    0
 6     1830    23         0                    0
 7     2210    18         0                    0
 8     2360    31         0                    0
 9     2410    18         0                    0
10     2480    19         0                    0
# ℹ 20 more rows
…
